Size, Type, Time
100, "Sequential", 0.000009
100, "Parallel", 0.004386
100, "Built-in", 0.000021
100, "Sequential", 0.000009
100, "Parallel", 0.004895
100, "Built-in", 0.000023
100, "Sequential", 0.000009
100, "Parallel", 0.004323
100, "Built-in", 0.000021
100, "Sequential", 0.000009
100, "Parallel", 0.003319
100, "Built-in", 0.000021
100, "Sequential", 0.000009
100, "Parallel", 0.003607
100, "Built-in", 0.000016
1000, "Sequential", 0.000115
1000, "Parallel", 0.015980
1000, "Built-in", 0.000125
1000, "Sequential", 0.000109
1000, "Parallel", 0.014248
1000, "Built-in", 0.000108
1000, "Sequential", 0.000095
1000, "Parallel", 0.011414
1000, "Built-in", 0.000108
1000, "Sequential", 0.000094
1000, "Parallel", 0.014619
1000, "Built-in", 0.000109
1000, "Sequential", 0.000094
1000, "Parallel", 0.011947
1000, "Built-in", 0.000110
10000, "Sequential", 0.001178
10000, "Parallel", 0.029578
10000, "Built-in", 0.001284
10000, "Sequential", 0.001173
10000, "Parallel", 0.023026
10000, "Built-in", 0.001290
10000, "Sequential", 0.001149
10000, "Parallel", 0.027126
10000, "Built-in", 0.001301
10000, "Sequential", 0.001142
10000, "Parallel", 0.027187
10000, "Built-in", 0.001305
10000, "Sequential", 0.001149
10000, "Parallel", 0.028343
10000, "Built-in", 0.001302
100000, "Sequential", 0.014449
100000, "Parallel", 0.040539
100000, "Built-in", 0.016006
100000, "Sequential", 0.014423
100000, "Parallel", 0.039298
100000, "Built-in", 0.016042
100000, "Sequential", 0.014354
100000, "Parallel", 0.041675
100000, "Built-in", 0.016303
100000, "Sequential", 0.014382
100000, "Parallel", 0.041028
100000, "Built-in", 0.015984
100000, "Sequential", 0.014341
100000, "Parallel", 0.038219
100000, "Built-in", 0.015903
200000, "Sequential", 0.030129
200000, "Parallel", 0.039334
200000, "Built-in", 0.033760
200000, "Sequential", 0.030076
200000, "Parallel", 0.036278
200000, "Built-in", 0.033777
200000, "Sequential", 0.030209
200000, "Parallel", 0.037004
200000, "Built-in", 0.034514
200000, "Sequential", 0.030709
200000, "Parallel", 0.038952
200000, "Built-in", 0.033931
200000, "Sequential", 0.030256
200000, "Parallel", 0.037556
200000, "Built-in", 0.033847
300000, "Sequential", 0.046644
300000, "Parallel", 0.048570
300000, "Built-in", 0.051809
300000, "Sequential", 0.046852
300000, "Parallel", 0.043541
300000, "Built-in", 0.052050
300000, "Sequential", 0.046918
300000, "Parallel", 0.047358
300000, "Built-in", 0.054899
300000, "Sequential", 0.050399
300000, "Parallel", 0.046212
300000, "Built-in", 0.051833
300000, "Sequential", 0.046631
300000, "Parallel", 0.042486
300000, "Built-in", 0.051823
400000, "Sequential", 0.064408
400000, "Parallel", 0.046936
400000, "Built-in", 0.069743
400000, "Sequential", 0.063572
400000, "Parallel", 0.048994
400000, "Built-in", 0.069983
400000, "Sequential", 0.063211
400000, "Parallel", 0.047949
400000, "Built-in", 0.069953
400000, "Sequential", 0.063195
400000, "Parallel", 0.046658
400000, "Built-in", 0.070894
400000, "Sequential", 0.064935
400000, "Parallel", 0.046050
400000, "Built-in", 0.070098
500000, "Sequential", 0.080102
500000, "Parallel", 0.049621
500000, "Built-in", 0.089405
500000, "Sequential", 0.076246
500000, "Parallel", 0.049176
500000, "Built-in", 0.088076
500000, "Sequential", 0.077811
500000, "Parallel", 0.050938
500000, "Built-in", 0.089877
500000, "Sequential", 0.076792
500000, "Parallel", 0.045259
500000, "Built-in", 0.090210
500000, "Sequential", 0.077267
500000, "Parallel", 0.048206
500000, "Built-in", 0.090291
600000, "Sequential", 0.096853
600000, "Parallel", 0.050421
600000, "Built-in", 0.109393
600000, "Sequential", 0.095656
600000, "Parallel", 0.059166
600000, "Built-in", 0.109845
600000, "Sequential", 0.097657
600000, "Parallel", 0.055835
600000, "Built-in", 0.108208
600000, "Sequential", 0.098399
600000, "Parallel", 0.054761
600000, "Built-in", 0.109136
600000, "Sequential", 0.095845
600000, "Parallel", 0.052791
600000, "Built-in", 0.109019
700000, "Sequential", 0.109539
700000, "Parallel", 0.068652
700000, "Built-in", 0.129418
700000, "Sequential", 0.108108
700000, "Parallel", 0.050006
700000, "Built-in", 0.130167
700000, "Sequential", 0.109188
700000, "Parallel", 0.051783
700000, "Built-in", 0.129320
700000, "Sequential", 0.112425
700000, "Parallel", 0.057089
700000, "Built-in", 0.127907
700000, "Sequential", 0.111937
700000, "Parallel", 0.053117
700000, "Built-in", 0.129190
800000, "Sequential", 0.131754
800000, "Parallel", 0.061653
800000, "Built-in", 0.147248
800000, "Sequential", 0.134604
800000, "Parallel", 0.055802
800000, "Built-in", 0.148410
800000, "Sequential", 0.129597
800000, "Parallel", 0.054604
800000, "Built-in", 0.147145
800000, "Sequential", 0.131269
800000, "Parallel", 0.050879
800000, "Built-in", 0.148579
800000, "Sequential", 0.127987
800000, "Parallel", 0.052845
800000, "Built-in", 0.146346
900000, "Sequential", 0.146035
900000, "Parallel", 0.056964
900000, "Built-in", 0.168103
900000, "Sequential", 0.145996
900000, "Parallel", 0.070508
900000, "Built-in", 0.168595
900000, "Sequential", 0.146791
900000, "Parallel", 0.057974
900000, "Built-in", 0.168922
900000, "Sequential", 0.148079
900000, "Parallel", 0.057358
900000, "Built-in", 0.168602
900000, "Sequential", 0.146808
900000, "Parallel", 0.053845
900000, "Built-in", 0.169503
1000000, "Sequential", 0.164398
1000000, "Parallel", 0.071722
1000000, "Built-in", 0.187944
1000000, "Sequential", 0.163454
1000000, "Parallel", 0.067936
1000000, "Built-in", 0.187636
1000000, "Sequential", 0.164367
1000000, "Parallel", 0.061927
1000000, "Built-in", 0.186787
1000000, "Sequential", 0.164861
1000000, "Parallel", 0.058415
1000000, "Built-in", 0.188034
1000000, "Sequential", 0.168067
1000000, "Parallel", 0.053867
1000000, "Built-in", 0.187129
